{
  "introTitle": "À propos de moi",
  "introduction": [
    "Bonjour, je m'appelle Mika. Une développeuse japonaise.",
    "J'ai commencé ma carrière au Japon, d'abord comme développeuse Cobol, mais après être venu en France, j'ai travaillé dans d'autres domaines pendant un certain temps.",
    "J'ai recommencé la programmation web en autodidacte en 2020. Puis en 2021, j'ai suivi une formation Simplon web et web mobile pendant 9 mois.",
    "Actuellement, je travaille pour une agence web en alternance avec la formation CDA simplon.",
    " Je suis spécialisée dans le développement back-end en PHP. Les frameworks avec lesquels je travaille souvent sont Symfony et Processwire.",
    " Je suis également intéressé par le front-end et j'apprends React pour le moment. J'aime apprendre😊"
  ],
  "notice": [
    "Je suis actuellement à la recherche d'un poste développeur web à partir du 9/2022.",
    "J'ai plein de motivation. Contactez moi vite."
  ],
  "firstName": "Mika",
  "lastName": "Ito",
  "job": "Développeuse Web et Web mobile",
  "photo": "myphoto.jpg",
  "address": {
    "streetAddress": "",
    "city": "CHAMBERY",
    "postalCode": "73000"
  },
  "phoneNumbers": [
    {
      "type": "home",
      "number": ""
    },
    {
      "type": "mobile",
      "number": "+33(0)6 52 37 47 21"
    }
  ],
  "mail": "mika.ito.simplon@gmail.com",
  "webSite": "",
  "git": "https://gitlab.com/Mika73",
  "cvTitle": "Recherche de stage en tant que Développeuse Web et Web mobile",
  "downloadCVFileName": "Mika ITO CV.pdf",
  "downloadCVTitle": "Télécharger CV",
  "studies": {
    "title": "Études",
    "studies": [
      {
        "startDate": "2021-10-01",
        "endDate": "2022-09-30",
        "name": "Formation Concepteur développeur d'applications, Simplon, Distanciel",
        "descriptions": [
          "Titre RNCP de niveau 6 (ancien niveau II), équivalent Bac+3",
          "Formation en alternance",
          "Intervient sur l’ensemble de la chaîne de production d’une application : choix techniques, environnement de développement, conception et réalisation"
        ]
      },
      {
        "startDate": "2020-12-14",
        "endDate": "2021-09-30",
        "name": "Formation developpeur web, Simplon, Chambéry",
        "descriptions": [
          "Titre RNCP de niveau 5 (ancien niveau III), équivalent Bac+2",
          "Certification - Opquast(885 points sur 1000)",
          "Développer la partie front-end et back-end d’une application web ou web mobile en intégrant les recommandations de sécurité"
        ]
      },
      {
        "startDate": "1992-01-01",
        "endDate": "1995-01-01",
        "name": "Baccalauréat japonais, Lycée Ohyu Gakuen, Tokyo, Japon",
        "descriptions": []
      }
    ]
  },
  "jobs": {
    "title": "Expériences Professionnelles",
    "jobs": [
      {
        "startDate": "2021-10-01",
        "endDate": "",
        "name": "Développeuse web(Alternance), Angleweb, Grésy-sur-Aix",
        "descriptions": [
          "Développement front-end et back-end en php",
          "Étude de faisabilité"
        ]
      },
      {
        "startDate": "2021-05-17",
        "endDate": "2021-07-31",
        "name": "Développeuse web(Stage), Angleweb, Grésy-sur-Aix",
        "descriptions": ["Développement d'un outil interne pour les audits de sites web"]
      },
      {
        "startDate": "2013-01-01",
        "endDate": "2020-12-13",
        "name": "Assistante maternelle, Chambéry",
        "descriptions": []
      },
      {
        "startDate": "2010-01-01",
        "endDate": "2013-01-01",
        "name": "Aide-soignante, Fondation CASIP/COJASOR(EHPAD),Aix-les-bains",
        "descriptions": []
      },
      {
        "startDate": "2007-01-01",
        "endDate": "2010-01-01",
        "name": "Education de mes enfants",
        "descriptions": []
      },
      {
        "startDate": "2006-01-01",
        "endDate": "2007-10-31",
        "name": "Développeuse COBOL, JAPAN AIRLINES, Tokyo, Japon",
        "descriptions": [
          "Programmation (Administration du personnel)"
        ]
      },
      {
        "startDate": "2004-01-01",
        "endDate": "2005-01-01",
        "name": "Cuisinière, Femme de chambre, Château des Comtes de Challes, Challes-les-Eaux",
        "descriptions": []
      },
      {
        "startDate": "1997-01-01",
        "endDate": "2002-01-01",
        "name": "Développeuse COBOL,Wing System, Tokyo, Japon",
        "descriptions": [
          "Programmation (Banque, Crédit)"
        ]
      }
    ]
  },
  "project": {
    "title": "Projets effectués",
    "completedProjects": [
      {
        "startDate": "2022-08",
        "endDate": "2022-09",
        "companyName": "AngleWeb",
        "name": "Module Processwire, Affichage de l'analyse de Matomo",
        "descriptions": [
          "Obtenir des informations sur la fréquentation des sites web à partir de l'API Matomo et les affiche sous forme de graphique."
        ],
        "technologies": [
          "PHP/Processwire",
          "Javascript",
          "Matomo API",
          "Chart.js"
        ]
      },
      {
        "startDate": "2022-03",
        "endDate": "2022-08",
        "companyName": "Projet personnel",
        "name": "Plateforme de cours en ligne",
        "descriptions": [
          "Plate-forme d'apprentissage en ligne",
          "Cours vidéo en ligne",
          "Paiement en ligne des tickets de cours",
          "Systèmes de réservation qui tiennent compte des décalages horaires",
          "système de gestion des clients"
        ],
        "url": "https://gitlab.com/Mika73/flute",
        "technologies": [
          "PHP/Symfony",
          "Javascript",
          "Sass/Bootstrap",
          "Mysql",
          "Stripe API",
          "Agora API"
        ]
      },
      {
        "startDate": "2022-06",
        "endDate": "2022-07",
        "companyName": "AngleWeb",
        "name": "Module Processwire, développement du paiement Paypal",
        "descriptions": [
          "Extension du module commercial de ProcessWire 'ProcessWire Form Builder'",
          "Traitement des paiements par carte de crédit par le service Paypal Checkout avec les formulaires FormBuilder"
        ],
        "technologies": [
          "PHP/Processwire",
          "Mysql",
          "PaypalAPI"
        ]
      },
      {
        "startDate": "2022-05",
        "endDate": "2022-06",
        "companyName": "AngleWeb",
        "name": "Web application Back office",
        "descriptions": [
          "Conception du back-office",
          "Développer un back-office pour réduire les tâches de gestion des clients et des commandes pour le client qui réparent des ailes de kite et wing"
        ],
        "technologies": [
          "PHP/Processwire",
          "Mysql",
          "HTML/CSS"
        ]
      },
      {
        "startDate": "2022-04",
        "endDate": "2022-04",
        "companyName": "AngleWeb",
        "name": "Développement Front-end Intégration",
        "descriptions": [
          "Intégration d'un site web"
        ],
        "technologies": [
          "PHP/Processwire",
          "HTML",
          "Sass/Bulma"
        ]
      },
      {
        "startDate": "2022-03",
        "endDate": "2022-06",
        "companyName": "Association Chambéry Solidarité Internationale",
        "name": "Développement des applications d'affectation du personnel volontaire",
        "descriptions": [
          "Développement d'une application pour l'affectation de personnel bénévole à un festival de plein air à Chambéry. Les volontaires potentiels indiquent sur un formulaire la date, l'heure et le type de travail qu'ils préfèrent. Les organisateurs peuvent ensuite attribuer automatiquement les volontaires en fonction des informations saisies. Cela a permis de réduire considérablement le temps nécessaire au processus d'affectation qui, jusqu'à l'année dernière, devait être effectué manuellement à partir d'Excel."
        ],
        "url": "https://gitlab.com/Mika73/lafi-bala",
        "technologies": [
          "PHP/Symfony",
          "Javascript",
          "Sass/Bootstrap",
          "Mysql"
        ]
      },
      {
        "startDate": "2022-01",
        "endDate": "2022-03",
        "companyName": "AngleWeb",
        "name": "Développement d'applications d'audit de sites web",
        "descriptions": [
          "Développement d'un outil interne pour les audits de sites web, qui fait partie de l'activité d'Angleweb",
          "Développement d'un back-office interne où les quelques 200 checkpoints d'audit peuvent être facilement consultés et mis à jour"
        ],
        "technologies": [
          "PHP/Processwire",
          "Javascript",
          "Sass/Bulma",
          "Mysql"
        ]
      },
      {
        "startDate": "2022-02",
        "endDate": "2022-03",
        "companyName": "AngleWeb",
        "name": "Développement de l'API Green IT",
        "descriptions": [
          "Développement d'une application permettant de mesurer l'impact environnemental d'un site web",
          "Créé en référence Open source GreenIT-Analysis",
          "Se compose de trois modules : Réception, Analyse, et FTP",
          "Calcule les émissions de dioxyde de carbone, etc"
        ],
        "technologies": [
          "Python/Flask",
          "PHP/Processwire",
          "Mysql"
        ]
      },
      {
        "startDate": "2021-11",
        "endDate": "2021-12",
        "companyName": "AngleWeb",
        "name": "Développement d'applications SEO",
        "descriptions": [
          "Développement d'un module processwire pour le référencement",
          "Une fois installé, un onglet tableau de bord apparaît sur l'écran d'administration. Il recherche les pages du site et affiche un panel de pages qui ne répondent pas aux critères de référencement"
        ],
        "technologies": [
          "PHP/Processwire",
          "Mysql"
        ]
      },
      {
        "startDate": "2021-10",
        "endDate": "2021-11",
        "companyName": "AngleWeb",
        "name": "Module Processwire, ajout d'une fonctionnalité de double opt-in",
        "descriptions": [
          "Développement d'un module pour s'abonner à Mailjet, basé sur open source module Processwire, SubscribeToMailchimp",
          "Ajout d'une fonctionnalité de double opt-in"
        ],
        "technologies": [
          "PHP/Processwire",
          "Mysql"
        ]
      },
      {
        "startDate": "2021-10",
        "endDate": "2022-06",
        "companyName": "AngleWeb",
        "name": "Maintenance du site Terra Nova",
        "descriptions": [
          "Une grande partie du site web de la fondation, qui compte près de 3000 pages, est constituée de fichiers PDF et est plutôt destinée aux utilisateurs de PC",
          "Pour améliorer l'interface utilisateur/UX pour les utilisateurs de smartphones, j'ai créé un outil en Python pour convertir les PDF en HTML"
        ],
        "technologies": [
          "Python",
          "PHP/Processwire",
          "Mysql"
        ]
      },
      {
        "startDate": "2021-03",
        "endDate": "2021-03",
        "companyName": "Blé Association Chambéry",
        "name": "Site vitrine Wordpress",
        "descriptions": [
          "Refonte du site web de l'Association Chambéry, en utilisant WordPress"
        ],
        "url": "https://www.ble73.fr/",
        "technologies": [
          "PHP/Wordpress",
          "HTML",
          "CSS",
          "Javascript"
        ]
      },
      {
        "startDate": "2021-08",
        "endDate": "2021-10",
        "companyName": "Projet personnel",
        "name": "Création d'un site e-commerce pour la vente de natto",
        "descriptions": [
          "Développement et déploiement d'un site web de vente en ligne de natto",
          "Paiement en ligne Stripe",
          "Back office",
          "Gestion des clients",
          "Gestion des ventes",
          "Gestion des dates d'opération"
        ],
        "url": "https://homemadenattoshop.com/",
        "technologies": [
          "PHP/Symfony",
          "Javascript",
          "Sass/Bootstrap",
          "Mysql",
          "Stripe API"
        ]
      },
      {
        "startDate": "2021-03",
        "endDate": "2021-03",
        "companyName": "Simplon",
        "name": "CV en ligne",
        "descriptions": [
          "Création d'une application de CV à l'aide de la bibliothèque React",
          "Utilise des fichiers Json en entrée, ce qui permet une mise à jour facile du contenu"
        ],
        "url": "https://gitlab.com/Mika73/cv",
        "technologies": [
          "Javascript/React",
          "Css/Bootstrap"
        ]
      },
      {
        "startDate": "2021-01",
        "endDate": "2021-02",
        "companyName": "Simplon",
        "name": "Développement d'un jeu traditionnel africain Awalé",
        "descriptions": [
          "Création d'un jeu traditionnel africain Awalé en vanilla Javascript"
        ],
        "url": "https://gitlab.com/Mika73/awale",
        "technologies": [
          "Javascript",
          "Css/Bootstrap"
        ]
      },
      {
        "startDate": "2021-01",
        "endDate": "2021-01",
        "companyName": "Simplon",
        "name": "PHP CRUD",
        "descriptions": [
          "Création d'un programme en PHP natif pour lire des données Excel et créer des bases de données et des tableaux",
          "Conception de bases de données relationnelles",
          "Création de systèmes CRUD"
        ],
        "url": "https://gitlab.com/Mika73/crud-php",
        "technologies": [
          "PHP",
          "Sqlite"
        ]
      },
      {
        "startDate": "2020-12",
        "endDate": "2021-01",
        "companyName": "Simplon",
        "name": "Création de sites web d'entreprise",
        "descriptions": [
          "Développement d'un site web pour un distributeur de grains de café dans un groupe de quatre personnes",
          "J'étais en charge de la page de contact"
        ],
        "url": "https://gitlab.com/avpbynf/savoiecoffee",
        "technologies": [
          "PHP",
          "Javascript",
          "Sqlite"
        ]
      }
    ]
  },
  "skillsTitle": "Mes compétences",
  "skillLastUpdate": "2022-08-21",
  "skills": [
    {
      "skill": "HTML",
      "level": 4
    },
    {
      "skill": "CSS",
      "level": 2
    },
    {
      "skill": "PHP",
      "level": 5
    },
    {
      "skill": "Python",
      "level": 2
    },
    {
      "skill": "SQL",
      "level": 4
    },
    {
      "skill": "JavaScript",
      "level": 4
    },
    {
      "skill": "React",
      "level": 2
    },
    {
      "skill": "Git",
      "level": 3
    },
    {
      "skill": "Wordpress",
      "level": 2
    },
    {
      "skill": "Symfony",
      "level": 4
    },
    {
      "skill": "Processwire",
      "level": 4
    }
  ],
  "languages": [
    {
      "skill": "Français",
      "level": 4
    },
    {
      "skill": "Anglais",
      "level": 4
    },
    {
      "skill": "Japonais",
      "level": 5
    }
  ],
  "Interests": [
    "programmation",
    "cours à pied"
  ]
}
